

{
	"sProcessing":   "Tunggu...",
	"sLengthMenu":   "Tampilkan entri _MENU_",
	"sZeroRecords":  "Tidak ada entri.",
	"sInfo":         "Pos dari _START_ hingga _END_ dari _TOTAL_ pos",
	"sInfoEmpty":    "Rekaman dari 0 hingga 0 dari 0 catatan",
	"sInfoFiltered": "(difilter dari catatan _MAX_)",
	"sInfoPostFix":  "",
	"sSearch":       "Cari:",
	"sUrl":          "",
	"oPaginate": {
		"sFirst": "Pertama",
		"sPrevious": "Sebelumnya",
		"sNext": "Lanjut",
		"sLast": "Terakhir"
	},
	"oAria": {
		"sSortAscending":  ": aktifkan untuk mengurutkan kolom yang naik",
		"sSortDescending": ": aktifkan untuk mengurutkan kolom turun"
	}
}
